{
  "type": "service_account",
  "project_id": "notificusinglaravel",
  "private_key_id": "7652ccc1345898ed845c295ee3834aef5bea8633",
  "private_key": "-----BEGIN PRIVATE KEY-----\nMIIEvgIBADANBgkqhkiG9w0BAQEFAASCBKgwggSkAgEAAoIBAQCvMKVgHCwaOMec\nA9gQhjI0bZVq5ZPc2deO3mk2IjWapLJHuaEKg93bGWRIjt49bLsiGZOo+Ktvcolj\nD1LOPX2VEX3YUFygsJEUomz8TP62orFHb1PvGxTFVbWdNksNTdI8NI1vgV42COWd\ncl9NRX8g/zAm+OhEpG5zFHUSY+FDlUOnAun8W9Lmxh1/ABJBi1feitY198B1kGlf\nZ2vQ57G+p9rJZzhKmqlNxCdg/pXbTu+y3K23LH3u91NSJ1076yxUMy/rX5cZZzl3\n9f2fCSDpjOp1B95FW2/MqDwDjuLISlyHOztwB9arOeAdsPlm2VSHoGx+lQPHy5bo\nUiElH0o/AgMBAAECggEAO01rxbdzpGKxCxpwAtPyXbX0nM1e+qURJ08ZbVYyMAlt\nQgNPxLfzmy2iuT8HcuKCDB59UfbvTVgHsq0muiKtho73uwgk+s4aJlJ/Mv67QEad\nXRGN54QSyWPkiPWufS/pKTEe6W5w3jivxVbIdOdADALmIWMjeMzyiGkV4iZGRDJM\n5odU1igF84Vw1njM3uqeXK6uROHbI9lwKtXlN3SQy3fwB8kcPJJMz5H225Q0r4BU\nvzNTaaZjcC0PXEEpDUIMn60e9gXHRGmIz7EOR6uMXJcBVb82+mGD+rtt5ZdJQsbM\nl2Batxk6bO73xsApCck1UR6BlGlZaZeivtA0RhY0hQKBgQDUhLLPA7dcMYRgC1jS\nQcW3Vyea4I7dGySAJpSariLjMmQMGfgrtKzExlL1LhP5c50UDHDrDzD3HKoPo8Ej\nVOXJonIotlg9umqP7RVMg45D6CQqQlzdhbds3F6sTxjoOC3PpnxIyJVMMG3d9Gmm\nSsZ/LFFIhPqk0IUoKzI+ost9JQKBgQDTCML3WUPY5dtlpeafGCe+toPKkWt+6/si\nai7xUNByh+T7FkjV5zmpuY4wrNfPVqIe9FFudrANCyDn4VQ8+ooBb6QRZpUsTocs\n1lqaJY/Oqn0f8dr1d7EAOs+h7+8MTeiApNgyB7GrAIw4j+ahj+qptc38tmctd6/m\niCWaBoxWkwKBgQCIM2utxUH0sj+Wlm8cgc7Hi/H0DstA5a5k+1TuNYBif98i6lnl\nGOxJSJnOTPO8Qd6ABOExpRDKrvJHB7o2fKiwq43ijcrL9PdqupWV7hJ1bwgOlW2T\nA6nk+O8sG51o5uhlVtv8gaE9rSQcxhIX44CH7M1DXwaMLp/IeLbA8fDciQKBgQCs\nicdNj/AGz7dXHhK2FHu6U2LhJY/rz2geNQ54QgiK+0xddVTLficI+yqj5Uz0ufIG\nuN4zIFrD70tSCkpjKLvYfLx5dZOVDAc8w2yEBx3SbFWs3oKUmu1eMLc9wPuC5deo\nBh60mNHL68C5Jf38LbxAUOI/Maqd4/Mu2jVT/vKSfQKBgFym810z0mWpYPFR4kP2\nSCOfiKogvn3nf+YtlGh4HlDjspGY546iS/y9Wq72FV/iIOh8W23j8EucvPSYO69Y\nHHUTggYrrabRYzm7Ud9i7h9QSdW9ixDoZp5GaWMwVGg4T4LMvPYmmErdjfkxs0Yb\n1bUEDro1zn8KMrfYMBbR0OAx\n-----END PRIVATE KEY-----\n",
  "client_email": "notificusinglaravel@appspot.gserviceaccount.com",
  "client_id": "117709618019207073621",
  "auth_uri": "https://accounts.google.com/o/oauth2/auth",
  "token_uri": "https://oauth2.googleapis.com/token",
  "auth_provider_x509_cert_url": "https://www.googleapis.com/oauth2/v1/certs",
  "client_x509_cert_url": "https://www.googleapis.com/robot/v1/metadata/x509/notificusinglaravel%40appspot.gserviceaccount.com"
}
